0 256 32 256 116 298 116 298 32 0
1 302 32 302 116 344 116 344 32 0
2 348 32 348 116 390 116 390 32 0
3 439 32 439 116 481 116 481 32 0
4 485 32 485 116 527 116 527 32 0
5 531 32 531 116 573 116 573 32 0
6 577 32 577 116 618 116 618 32 0
7 622 32 622 116 664 116 664 32 0
8 668 32 668 116 710 116 710 32 0
9 714 32 714 116 756 116 756 32 0
10 760 32 760 116 801 116 801 32 0
11 805 61 805 145 846 145 846 61 0
12 850 61 850 145 892 145 892 61 0
13 298 260 298 344 339 344 339 260 0
14 343 260 343 344 385 344 385 260 0
15 389 260 389 344 431 344 431 260 0
16 435 260 435 344 477 344 477 260 0
17 481 260 481 344 522 344 522 260 0
18 526 260 526 344 568 344 568 260 0
19 572 260 572 344 614 344 614 260 0
20 618 260 618 344 660 344 660 260 0
21 664 260 664 344 705 344 705 260 0
22 709 260 709 344 751 344 751 260 0
23 755 260 755 344 797 344 797 260 0
24 801 260 801 344 843 344 843 260 0
25 847 260 847 344 889 344 889 260 0
26 893 260 893 344 934 344 934 260 0
27 298 348 298 431 339 431 339 348 0
28 343 348 343 431 385 431 385 348 0
29 389 348 389 431 431 431 431 348 0
30 435 348 435 431 477 431 477 348 0
31 481 348 481 431 522 431 522 348 0
32 526 348 526 431 568 431 568 348 0
33 572 348 572 431 614 431 614 348 0
34 618 348 618 431 660 431 660 348 0
35 664 348 664 431 705 431 705 348 0
36 709 348 709 431 751 431 751 348 0
37 755 348 755 431 797 431 797 348 0
38 801 348 801 431 843 431 843 348 0
39 847 348 847 431 889 431 889 348 0
40 893 348 893 431 934 431 934 348 0
41 54 442 79 467 137 410 112 384 0
42 83 471 108 496 167 440 143 414 0
43 113 501 138 526 196 469 172 443 0
44 142 530 168 555 226 498 201 471 0
45 172 560 197 585 255 528 232 502 0
46 202 589 227 615 286 557 260 531 0
47 435 546 435 631 477 631 477 546 0
48 481 546 481 631 522 631 522 546 0
49 526 546 526 631 568 631 568 546 0
50 572 546 572 631 614 631 614 546 0
51 618 546 618 631 660 631 660 546 0
52 664 546 664 631 705 631 705 546 0
53 709 546 709 631 751 631 751 546 0
54 234 618 261 646 320 588 294 561 0
55 807 2 807 56 1275 64 1275 3 1
56 1071 66 1080 635 1276 635 1278 74 1
57 80 130 71 415 3 417 4 127 1
58 394 33 436 33 435 119 394 118 1
